{
  "exp_name": "tl_makehotdog_ddpg_4",
  "task": "pyrep_vrep_tl_makehotdog",
  "seed": 1,
  "mode": "train",
  "cmd_log": "",
  "max_episode_timesteps": 100,
  "rl_agent": "ddpg",
  "max_itr": 5000,
  "gamma": 0.99,
  "log_transitions_interval": 10,
  "rollout_batch_size": 10,
  "synchronous": true,
  "nb_remote_runners": 0,
  "ray": false,
  "#### td3 configs ####": "",
  "td3": true,
  "minibatch_size": 256,
  "nb_optimization_steps_per_itr": 94,
  "no_update_until": 50000,
  "actor_lr": 0.001,
  "critic_lr": 0.001,
  "steps_of_uniform_random": 50000,
  "soft_target_update": 0.0005,
  "log_components":{
    "graph": false,
    "text": false,
    "scaled_state_dist": false,
    "unscaled_state_dist": false,
    "action_dist": false,
    "scaled_reward_dist": false,
    "unscaled_reward_dist": false,
    "done_dist": false,
    "adv_dist": false,
    "actor_gradient_dist": false,
    "critic_gradient_dist":false,
    "actor_weights": false,
    "critic_weights": false,
    "info_dict_scalar": ["decaying_epsilon", "replay_buffer_size", "critic_loss", "policy_loss"],
    "info_dict_dist": []
  }
}
